<?xml version="1.0" encoding="utf-8"?>
<!-- Generator: Adobe Illustrator 21.1.0, SVG Export Plug-In . SVG Version: 6.00 Build 0)  -->
<svg version="1.1" id="Capa_1" xmlns="http://www.w3.org/2000/svg" xmlns:xlink="http://www.w3.org/1999/xlink" x="0px" y="0px"
	 viewBox="0 0 23.5 20" style="enable-background:new 0 0 23.5 20;" xml:space="preserve">
<style type="text/css">
	.st0{fill:#92C37C;}
</style>
<g>
	<path class="st0" d="M23.5,15.8L18.6,20v-2.8h-0.8c-2.6,0-4.6-1.2-6.2-2.7c0.6-0.7,1.2-1.5,1.7-2.1c0.1-0.2,0.2-0.3,0.4-0.5
		c1.2,1.2,2.5,2,4.1,2h0.8v-2.4L23.5,15.8z M0,6.3h2.5c1.6,0,2.8,0.7,3.9,1.8c0.2-0.2,0.4-0.5,0.6-0.7c0.5-0.6,0.9-1.2,1.5-1.9
		C6.8,4.1,5,3,2.5,3H0V6.3z M18.6,0v2.8h-0.8c-4.3,0-6.8,3.2-9,6.1c-1.9,2.6-3.6,4.8-6.3,4.8H0v3.3h2.5c4.3,0,6.8-3.2,9-6.1
		c1.9-2.6,3.6-4.8,6.3-4.8h0.8v2.4l4.9-4.2L18.6,0z"/>
</g>
</svg>
